<?xml version="1.0" encoding="UTF-8"?>
<svg width="197px" height="49px" viewBox="0 0 197 49" version="1.1" xmlns="http://www.w3.org/2000/svg" xmlns:xlink="http://www.w3.org/1999/xlink">
    <!-- Generator: Sketch 55.1 (78136) - https://sketchapp.com -->
    <title>Group 23</title>
    <desc>Created with Sketch.</desc>
    <defs>
        <polygon id="path-1" points="0 48.6769917 195.992384 48.6769917 195.992384 -1.42108547e-14 0 -1.42108547e-14"></polygon>
    </defs>
    <g id="Atoms" stroke="none" stroke-width="1" fill="none" fill-rule="evenodd">
        <g id="2---Atoms/-logo_white_splash" transform="translate(-2.000000, -8.000000)">
            <g id="Group-23" transform="translate(2.400000, 8.000000)">
                <path d="M2.90192229,17.8764886 C2.90192229,17.3203299 3.62098978,17.1372291 4.23664622,17.1098043 C4.37372597,17.0779431 4.37973824,16.9936522 4.37973824,16.8819365 L4.37973824,14.6649646 C4.37973824,14.5459894 4.28995501,14.4330638 4.17131288,14.4330638 C1.9487771,14.4330638 0,15.421163 0,17.2695134 L0,30.4269613 C0,32.2781349 1.9487771,33.2650241 4.17131288,33.2650241 C4.28995501,33.2650241 4.37973824,33.1512919 4.37973824,33.0343332 L4.37973824,30.8161514 C4.37973824,30.704839 4.37372597,30.6213547 4.23664622,30.587477 C3.62098978,30.5604555 2.90192229,30.3789679 2.90192229,29.822406 L2.90192229,17.8764886 Z" id="Fill-1" fill="#FFFFFF"></path>
                <path d="M15.8915117,15.0478228 C15.8915117,13.595922 16.5167877,13.1216344 18.121663,13.0510559 C18.4787918,12.9639418 18.4972294,12.7441402 18.4972294,12.4549699 L18.4972294,6.25333686 C18.4972294,5.93472529 18.2611476,5.63466579 17.952117,5.63466579 C12.153483,5.63466579 8.32567117,9.6999881 8.32567117,14.2077369 L8.32567117,35.3240212 C8.32567117,39.8325765 12.153483,43.8970922 17.952117,43.8970922 C18.2611476,43.8970922 18.4972294,43.5966294 18.4972294,43.2800344 L18.4972294,37.0771914 C18.4972294,36.7872145 18.4787918,36.5682195 18.121663,36.4807021 C16.5167877,36.4109302 15.8915117,35.9362393 15.8915117,34.4843385 L15.8915117,15.0478228 Z" id="Fill-3" fill="#FFF349"></path>
                <path d="M4.17131288,14.4330235 C3.99695706,14.4330235 3.82500613,14.4414929 3.65345603,14.4543987 L3.65345603,17.1904251 C3.84184049,17.1456582 4.04385276,17.1186367 4.2362454,17.109764 C4.37372597,17.0783061 4.37973824,16.9940152 4.37973824,16.8818962 L4.37973824,14.6649243 C4.37973824,14.5459491 4.28995501,14.4330235 4.17131288,14.4330235" id="Fill-5" fill="#FFFFFF"></path>
                <path d="M18.6017227,17.2396284 C18.6017227,16.0885937 19.5203975,15.7119061 20.792193,15.6554433 C21.0751706,15.5860747 21.0904016,15.4126532 21.0904016,15.1827689 L21.0904016,10.5975855 C21.0904016,10.3511656 20.9032196,10.1180549 20.6575182,10.1180549 C16.0589333,10.1180549 12.5994732,12.1599921 12.5994732,15.9857507 L12.5994732,33.9102731 C12.5994732,37.736435 16.0589333,39.7775656 20.6575182,39.7775656 C20.9032196,39.7775656 21.0904016,39.5452615 21.0904016,39.299245 L21.0904016,34.7132549 C21.0904016,34.4837739 21.0751706,34.3099491 20.792193,34.2389673 C19.5203975,34.1849243 18.6017227,33.8082367 18.6017227,32.6567987 L18.6017227,17.2396284 Z" id="Fill-7" fill="#00CDFF"></path>
                <path d="M7.34262495,7.92302281 C7.34262495,7.16319471 8.05087035,6.12306909 9.52828548,6.0960476 C9.67899305,6.05975008 9.68741022,5.96618314 9.68741022,5.8447881 L9.68741022,3.33138645 C9.68741022,3.20071537 9.58680491,3.07609388 9.45613824,3.07609388 C7.00393374,3.07609388 4.14209325,4.65019636 4.14209325,7.04099306 L4.14209325,20.6711154 C4.14209325,23.296636 7.00393374,24.8570261 9.45613824,24.8570261 C9.58680491,24.8570261 9.68741022,24.7324046 9.68741022,24.6017336 L9.68741022,22.0891385 C9.68741022,21.9677435 9.67899305,21.8741765 9.52828548,21.8374757 C8.05087035,21.8104542 7.34262495,20.9130988 7.34262495,19.9459716 L7.34262495,7.92302281 Z" id="Fill-9" fill="#00D943"></path>
                <mask id="mask-2" fill="white">
                    <use xlink:href="#path-1"></use>
                </mask>
                <g id="Clip-12"></g>
                <polygon id="Fill-11" fill="#FFFFFF" mask="url(#mask-2)" points="105.228753 39.5957554 116.324597 39.5957554 116.324597 37.1363967 105.228753 37.1363967"></polygon>
                <path d="M78.7375288,38.5073137 C78.7375288,39.1969666 77.3687354,39.6873864 75.5133489,39.6873864 C73.6571607,39.6873864 72.2899706,39.1969666 72.2899706,38.5073137 L72.2899706,17.3418261 C72.2899706,16.2625798 71.1183796,15.376517 68.7707885,15.376517 C66.525807,15.376517 65.351811,16.2625798 65.351811,17.3418261 L65.351811,38.5073137 C65.351811,39.1969666 63.8872221,39.6873864 62.1292344,39.6873864 C60.2718438,39.6873864 58.806854,39.1969666 58.806854,38.5073137 L58.806854,17.3418261 C58.806854,16.2625798 57.6328581,15.376517 55.386674,15.376517 C53.1396883,15.376517 51.9680973,16.2625798 51.9680973,17.3418261 L51.9680973,38.5073137 C51.9680973,39.1969666 50.5027067,39.6873864 48.6449153,39.6873864 C46.8873284,39.6873864 45.421537,39.1969666 45.421537,38.5073137 L45.421537,15.2785137 C45.421537,12.2327484 49.5247108,9.87179636 55.386674,9.87179636 C57.7326618,9.87179636 60.6622405,10.8550559 62.1292344,11.8375088 C63.4956229,10.8550559 66.4272057,9.87179636 68.7707885,9.87179636 C74.6339542,9.87179636 78.7375288,12.2327484 78.7375288,15.2785137 L78.7375288,38.5073137 Z" id="Fill-13" fill="#FFFFFF" mask="url(#mask-2)"></path>
                <path d="M96.4075902,17.3420278 C96.4075902,16.2615716 94.5530053,15.2783121 92.3036147,15.2783121 C89.9600319,15.2783121 88.2008417,16.2615716 88.2008417,17.3420278 L88.2008417,32.1856972 C88.2008417,33.2653468 89.9600319,34.2486063 92.3036147,34.2486063 C94.5530053,34.2486063 96.4075902,33.2653468 96.4075902,32.1856972 L96.4075902,17.3420278 Z M102.855549,34.2486063 C102.855549,36.707965 99.6317701,39.6565336 93.2816106,39.6565336 C91.3260196,39.6565336 89.6674348,39.1640972 88.2008417,38.474041 L88.2008417,47.5964145 C88.2008417,48.2840509 86.7358519,48.6768707 84.8804654,48.6768707 C83.1220769,48.6768707 81.6554838,48.2840509 81.6554838,47.5964145 L81.6554838,15.2783121 C81.6554838,12.2313369 86.442854,9.87159471 92.3036147,9.87159471 C98.1659787,9.87159471 102.855549,12.2313369 102.855549,15.2783121 L102.855549,34.2486063 Z" id="Fill-14" fill="#FFFFFF" mask="url(#mask-2)"></path>
                <path d="M42.5022593,6.43583273 C42.5022593,7.08313851 41.1290569,7.45095339 39.3891059,7.45095339 C37.7421448,7.45095339 36.3677399,7.08313851 36.3677399,6.43583273 L36.3677399,1.01136992 C36.3677399,0.36809719 37.7421448,-0.000120991736 39.3891059,-0.000120991736 C41.1290569,-0.000120991736 42.5022593,0.36809719 42.5022593,1.01136992 L42.5022593,6.43583273 Z" id="Fill-15" fill="#FFFFFF" mask="url(#mask-2)"></path>
                <path d="M36.4964425,17.1470698 C36.4964425,15.9964383 35.5781685,15.6193474 34.3055714,15.5636912 C34.022193,15.4943226 34.0073628,15.3213045 34.0073628,15.0902102 L34.0073628,10.5050268 C34.0073628,10.2594136 34.1953464,10.0254962 34.4402462,10.0254962 C39.0396327,10.0254962 42.498692,11.5915326 42.498692,15.5596582 L42.498692,34.1536681 C42.498692,38.1213904 39.0396327,39.6874268 34.4402462,39.6874268 C34.1953464,39.6874268 34.0073628,39.454316 34.0073628,39.2087028 L34.0073628,34.6219061 C34.0073628,34.3932317 34.022193,34.2186003 34.3055714,34.149635 C35.5781685,34.0943821 36.4964425,33.7168879 36.4964425,32.5654499 L36.4964425,17.1470698 Z" id="Fill-16" fill="#FFFFFF" mask="url(#mask-2)"></path>
                <path d="M125.455552,37.1524483 C128.448861,37.1524483 129.770758,36.7580152 129.770758,31.7792053 C129.770758,26.3978962 128.682137,25.9542598 125.455552,25.9542598 C122.341998,25.9542598 121.139544,26.3769243 121.139544,31.7792053 C121.139544,36.7818102 122.606938,37.1524483 125.455552,37.1524483 M125.455552,23.4106102 C130.841744,23.4106102 132.523175,25.4275425 132.523175,31.7792053 C132.523175,37.7090102 130.86419,39.6960979 125.455552,39.6960979 C120.06455,39.6960979 118.387126,37.4984846 118.387126,31.7792053 C118.387126,25.2472648 120.204435,23.4106102 125.455552,23.4106102" id="Fill-17" fill="#FFFFFF" mask="url(#mask-2)"></path>
                <path d="M135.572278,23.5609626 L137.620859,23.5609626 L138.324294,25.3826949 C140.023362,24.3466023 141.540458,23.2899412 143.964204,23.2899412 C147.278168,23.2899412 148.824924,25.7860007 148.824924,28.542999 L148.824924,39.5459874 L146.072507,39.5459874 L146.072507,28.5248502 C146.072507,26.6466552 145.031583,25.833994 143.635935,25.833994 C141.435444,25.833994 140.336401,26.3913626 138.324294,27.4593164 L138.324294,39.5459874 L135.572278,39.5459874 L135.572278,23.5609626 Z" id="Fill-18" fill="#FFFFFF" mask="url(#mask-2)"></path>
                <path d="M151.877033,15.9753455 L154.629049,15.9753455 L154.629049,33.6760331 C154.629049,36.2136331 155.28118,36.7879405 156.244346,37.0472661 C156.244346,37.0472661 158.517786,37.6792463 158.727814,37.6792463 L158.727814,39.5453421 L155.871184,39.5453421 C153.486317,39.5453421 151.877033,38.1007008 151.877033,33.8563107 L151.877033,15.9753455 Z" id="Fill-19" fill="#FFFFFF" mask="url(#mask-2)"></path>
                <path d="M160.918806,39.5457455 L163.671223,39.5457455 L163.671223,23.561124 L160.918806,23.561124 L160.918806,39.5457455 Z M160.660278,19.1211306 C160.660278,18.6698314 160.899566,18.3689653 161.378945,18.3689653 L163.322912,18.3689653 C163.771828,18.3689653 164.006307,18.699676 164.006307,19.1211306 L164.006307,21.0307835 C164.006307,21.4820826 163.741767,21.7236628 163.322912,21.7236628 L161.378945,21.7236628 C160.96009,21.7236628 160.660278,21.452238 160.660278,21.0307835 L160.660278,19.1211306 Z" id="Fill-20" fill="#FFFFFF" mask="url(#mask-2)"></path>
                <path d="M167.074448,23.5609626 L169.12343,23.5609626 L169.826865,25.3826949 C171.525532,24.3466023 173.042628,23.2899412 175.466375,23.2899412 C178.780739,23.2899412 180.327094,25.7860007 180.327094,28.542999 L180.327094,39.5459874 L177.575078,39.5459874 L177.575078,28.5248502 C177.575078,26.6466552 176.533753,25.833994 175.138506,25.833994 C172.937614,25.833994 171.838571,26.3913626 169.826865,27.4593164 L169.826865,39.5459874 L167.074448,39.5459874 L167.074448,23.5609626 Z" id="Fill-21" fill="#FFFFFF" mask="url(#mask-2)"></path>
                <path d="M191.507912,30.4845131 C192.703553,30.4845131 193.240649,30.0166783 193.240649,29.0858486 C193.240649,26.2372998 192.727201,25.9388536 189.828485,25.9388536 C186.766236,25.9388536 185.542939,25.996123 185.551313,30.4845131 L191.507912,30.4845131 Z M189.739904,23.4403742 C193.712812,23.4403742 195.992264,23.8465031 195.992264,29.1455379 C195.992264,31.6073164 194.676379,32.9079775 191.804117,32.9079775 L185.551356,32.9079775 C185.551356,36.4312569 186.347381,37.1572073 188.662906,37.1572073 C191.325941,37.1572073 193.449876,37.1822122 195.693254,36.8515015 L195.693254,38.8527048 C193.320011,39.5859147 190.517491,39.6964205 188.034424,39.6964205 C183.995782,39.6964205 182.798939,37.6314949 182.798939,31.4782585 C182.798939,24.4155676 184.797418,23.4403742 189.739904,23.4403742 L189.739904,23.4403742 Z" id="Fill-22" fill="#FFFFFF" mask="url(#mask-2)"></path>
            </g>
        </g>
    </g>
</svg>